…
# To uninstall the package, use:
# remove.packages("meps.panel")
```

Usage
=====

``` r
# Load tibble for better printout
library(tibble)

meps.panel::f2013_14
#> # A tibble: 16,714 x 3,454
#>      duid    pid dupersid       panel                 yearind saqrds24
#>    <fctr> <fctr>   <fctr>      <fctr>                  <fctr>   <fctr>
#>  1  40001    101 40001101 18 panel 18 1 in both 2013 and 2014    1 yes
#>  2  40001    102 40001102 18 panel 18 1 in both 2013 and 2014    1 yes
#>  3  40001    103 40001103 18 panel 18 1 in both 2013 and 2014     0 no
#>  4  40001    104 40001104 18 panel 18 1 in both 2013 and 2014     0 no
#>  5  40002    101 40002101 18 panel 18 1 in both 2013 and 2014    1 yes
#>  6  40004    101 40004101 18 panel 18 1 in both 2013 and 2014    1 yes
#>  7  40004    102 40004102 18 panel 18 1 in both 2013 and 2014    1 yes
#>  8  40004    103 40004103 18 panel 18 1 in both 2013 and 2014     0 no
#>  9  40004    104 40004104 18 panel 18 1 in both 2013 and 2014     0 no
#> 10  40004    105 40004105 18 panel 18 1 in both 2013 and 2014     0 no
#> # ... with 16,704 more rows, and 3448 more variables: all5rds <fctr>,
#> #   died <fctr>, inst <fctr>, military <fctr>, entrsrvy <fctr>,
#> #   leftus <fctr>, other <fctr>, famid1 <fctr>, famid2 <fctr>,
#> #   famid3 <fctr>, famid4 <fctr>, famid5 <fctr>, famidy1 <fctr>,
#> #   famidy2 <fctr>, famidyr1 <fctr>, famidyr2 <fctr>, cpsfamy1 <fctr>,
#> #   cpsfamy2 <fctr>, fcszy1 <fctr>, fcszy2 <fctr>, fcrpy1 <fctr>,
#> #   fcrpy2 <fctr>, ruletr1 <fctr>, ruletr2 <fctr>, ruletr3 <fctr>,
#> #   ruletr4 <fctr>, ruletr5 <fctr>, ruletry1 <fctr>, ruletry2 <fctr>,
#> #   rusize1 <fctr>, rusize2 <fctr>, rusize3 <fctr>, rusize4 <fctr>,
…
